<?xml version="1.0" standalone="no"?>
<!DOCTYPE svg PUBLIC "-//W3C//DTD SVG 1.1//EN" "http://www.w3.org/Graphics/SVG/1.1/DTD/svg11.dtd">
<svg width="4.8749999970675in" height="8.72440944196in"
 viewBox="0 0 4.8749999970675 8.72440944196"
 xmlns="http://www.w3.org/2000/svg" version="1.1"
 xmlns:xlink="http://www.w3.org/1999/xlink">
<desc>Output from Flights of Ideas SVG Sketchup Plugin</desc>

  <path id="face0-cut"
 style="fill:none;stroke:rgb(0,0,0);stroke-width:.001;stroke-miterlimit:4;stroke-dasharray:none;stroke-linejoin:round;stroke-linecap:round"
        d="M 3.8749999970675,7.72440944196 L 3.8749999970675,7.0994094425975 L 3.749999997195,7.0994094425975 L 3.749999997195,6.5994094431075 L 3.8749999970675,6.5994094431075 L 3.8749999970675,6.0994094436175 L 3.749999997195,6.0994094436175 L 3.749999997195,5.5994094441275 L 3.8749999970675,5.5994094441275 L 3.8749999970675,5.0994094446375 L 3.749999997195,5.0994094446375 L 3.749999997195,4.5994094451475 L 3.8749999970675,4.5994094451475 L 3.8749999970675,4.1249999968125 L 3.749999997195,4.1249999968125 L 3.749999997195,3.6249999973225 L 3.8749999970675,3.6249999973225 L 3.8749999970675,3.1249999978325 L 3.749999997195,3.1249999978325 L 3.749999997195,2.6249999983425 L 3.8749999970675,2.6249999983425 L 3.8749999970675,2.1249999988525 L 3.749999997195,2.1249999988525 L 3.749999997195,1.6249999993625 L 3.8749999970675,1.6249999993625 L 3.8749999970675,1.0 L 3.249999997705,1.0 L 3.249999997705,1.1249999998725 L 2.749999998215,1.1249999998725 L 2.749999998215,1.0 L 2.249999998725,1.0 L 2.249999998725,1.1249999998725 L 1.74999999923499,1.1249999998725 L 1.74999999923499,1.0 L 1.0,1.0 L 1.0,1.8072047235861 L 1.3749999996175,1.8072047235861 L 1.3749999996175,5.84720471946529 L 1.12499999987249,5.84720471946529 L 1.12499999987249,6.28720471901648 L 1.3749999996175,6.28720471901649 L 1.3749999996175,6.91720471837389 L 1.0,6.9172047183739 L 1.0,7.72440944196 L 1.74999999923499,7.72440944196 L 1.74999999923499,7.5994094420875 L 2.249999998725,7.5994094420875 L 2.249999998725,7.72440944196 L 2.749999998215,7.72440944196 L 2.749999998215,7.5994094420875 L 3.249999997705,7.5994094420875 L 3.249999997705,7.72440944196 L 3.8749999970675,7.72440944196 "
  />
  <path id="face0-interior"
 style="fill:none;stroke:rgb(255,0,0);stroke-width:.001;stroke-miterlimit:4;stroke-dasharray:none;stroke-linejoin:round;stroke-linecap:round"
        d="M 3.8749999970675,7.72440944196 M 3.8749999970675,7.0994094425975 M 3.749999997195,7.0994094425975 M 3.749999997195,6.5994094431075 M 3.8749999970675,6.5994094431075 M 3.8749999970675,6.0994094436175 M 3.749999997195,6.0994094436175 M 3.749999997195,5.5994094441275 M 3.8749999970675,5.5994094441275 M 3.8749999970675,5.0994094446375 M 3.749999997195,5.0994094446375 M 3.749999997195,4.5994094451475 M 3.8749999970675,4.5994094451475 M 3.8749999970675,4.1249999968125 M 3.749999997195,4.1249999968125 M 3.749999997195,3.6249999973225 M 3.8749999970675,3.6249999973225 M 3.8749999970675,3.1249999978325 M 3.749999997195,3.1249999978325 M 3.749999997195,2.6249999983425 M 3.8749999970675,2.6249999983425 M 3.8749999970675,2.1249999988525 M 3.749999997195,2.1249999988525 M 3.749999997195,1.6249999993625 M 3.8749999970675,1.6249999993625 M 3.8749999970675,1.0 M 3.249999997705,1.0 M 3.249999997705,1.1249999998725 M 2.749999998215,1.1249999998725 M 2.749999998215,1.0 M 2.249999998725,1.0 M 2.249999998725,1.1249999998725 M 1.74999999923499,1.1249999998725 M 1.74999999923499,1.0 M 1.0,1.0 M 1.0,1.8072047235861 M 1.3749999996175,1.8072047235861 M 1.3749999996175,5.84720471946529 M 1.12499999987249,5.84720471946529 M 1.12499999987249,6.28720471901648 M 1.3749999996175,6.28720471901649 M 1.3749999996175,6.91720471837389 M 1.0,6.9172047183739 M 1.0,7.72440944196 M 1.74999999923499,7.72440944196 M 1.74999999923499,7.5994094420875 M 2.249999998725,7.5994094420875 M 2.249999998725,7.72440944196 M 2.749999998215,7.72440944196 M 2.749999998215,7.5994094420875 M 3.249999997705,7.5994094420875 M 3.249999997705,7.72440944196 "
  />
  <path id="face0-interior"
 style="fill:none;stroke:rgb(0,255,0);stroke-width:.001;stroke-miterlimit:4;stroke-dasharray:none;stroke-linejoin:round;stroke-linecap:round"
        d="M 3.8749999970675,7.72440944196 M 3.8749999970675,7.0994094425975 M 3.749999997195,7.0994094425975 M 3.749999997195,6.5994094431075 M 3.8749999970675,6.5994094431075 M 3.8749999970675,6.0994094436175 M 3.749999997195,6.0994094436175 M 3.749999997195,5.5994094441275 M 3.8749999970675,5.5994094441275 M 3.8749999970675,5.0994094446375 M 3.749999997195,5.0994094446375 M 3.749999997195,4.5994094451475 M 3.8749999970675,4.5994094451475 M 3.8749999970675,4.1249999968125 M 3.749999997195,4.1249999968125 M 3.749999997195,3.6249999973225 M 3.8749999970675,3.6249999973225 M 3.8749999970675,3.1249999978325 M 3.749999997195,3.1249999978325 M 3.749999997195,2.6249999983425 M 3.8749999970675,2.6249999983425 M 3.8749999970675,2.1249999988525 M 3.749999997195,2.1249999988525 M 3.749999997195,1.6249999993625 M 3.8749999970675,1.6249999993625 M 3.8749999970675,1.0 M 3.249999997705,1.0 M 3.249999997705,1.1249999998725 M 2.749999998215,1.1249999998725 M 2.749999998215,1.0 M 2.249999998725,1.0 M 2.249999998725,1.1249999998725 M 1.74999999923499,1.1249999998725 M 1.74999999923499,1.0 M 1.0,1.0 M 1.0,1.8072047235861 M 1.3749999996175,1.8072047235861 M 1.3749999996175,5.84720471946529 M 1.12499999987249,5.84720471946529 M 1.12499999987249,6.28720471901648 M 1.3749999996175,6.28720471901649 M 1.3749999996175,6.91720471837389 M 1.0,6.9172047183739 M 1.0,7.72440944196 M 1.74999999923499,7.72440944196 M 1.74999999923499,7.5994094420875 M 2.249999998725,7.5994094420875 M 2.249999998725,7.72440944196 M 2.749999998215,7.72440944196 M 2.749999998215,7.5994094420875 M 3.249999997705,7.5994094420875 M 3.249999997705,7.72440944196 "
  />
</svg>
