EESchema Schematic File Version 2
LIBS:melinalarm-rescue
LIBS:power
LIBS:device
LIBS:transistors
LIBS:conn
LIBS:linear
LIBS:regul
LIBS:74xx
LIBS:cmos4000
LIBS:adc-dac
LIBS:memory
LIBS:xilinx
LIBS:microcontrollers
LIBS:dsp
LIBS:microchip
LIBS:analog_switches
LIBS:motorola
LIBS:texas
LIBS:intel
LIBS:audio
LIBS:interface
LIBS:digital-audio
LIBS:philips
LIBS:display
LIBS:cypress
LIBS:siliconi
LIBS:opto
LIBS:atmel
LIBS:contrib
LIBS:valves
LIBS:melinalarm-display
LIBS:74xgxx
LIBS:ac-dc
LIBS:actel
LIBS:allegro
LIBS:Altera
LIBS:analog_devices
LIBS:battery_management
LIBS:bbd
LIBS:bosch
LIBS:brooktre
LIBS:cmos_ieee
LIBS:dc-dc
LIBS:diode
LIBS:elec-unifil
LIBS:ESD_Protection
LIBS:ftdi
LIBS:gennum
LIBS:graphic_symbols
LIBS:hc11
LIBS:infineon
LIBS:intersil
LIBS:ir
LIBS:Lattice
LIBS:leds
LIBS:LEM
LIBS:logic_programmable
LIBS:maxim
LIBS:mechanical
LIBS:microchip_dspic33dsc
LIBS:microchip_pic10mcu
LIBS:microchip_pic12mcu
LIBS:microchip_pic16mcu
LIBS:microchip_pic18mcu
LIBS:microchip_pic24mcu
LIBS:microchip_pic32mcu
LIBS:modules
LIBS:motor_drivers
LIBS:motors
LIBS:msp430
LIBS:nordicsemi
LIBS:nxp
LIBS:nxp_armmcu
LIBS:onsemi
LIBS:Oscillators
LIBS:powerint
LIBS:Power_Management
LIBS:pspice
LIBS:references
LIBS:relays
LIBS:rfcom
LIBS:RFSolutions
LIBS:sensors
LIBS:silabs
LIBS:stm8
LIBS:stm32
LIBS:supertex
LIBS:switches
LIBS:transf
LIBS:triac_thyristor
LIBS:ttl_ieee
LIBS:video
LIBS:wiznet
LIBS:Worldsemi
LIBS:Xicor
LIBS:zetex
LIBS:Zilog
LIBS:melinalarm-cache
EELAYER 25 0
EELAYER END
$Descr A4 11693 8268
encoding utf-8
Sheet 1 1
Title ""
Date ""
Rev ""
Comp ""
Comment1 ""
Comment2 ""
Comment3 ""
Comment4 ""
$EndDescr
$Comp
L KW4-12041CXX AFF1
U 1 1 595DEC2D
P 9250 3850
F 0 "AFF1" H 9250 4600 50  0000 C CNN
F 1 "BL-Q120A-41" H 9250 4500 50  0000 C CNN
F 2 "melinalarm-Displays_7-Segment:KW4-12041XXX" H 8750 3850 50  0001 C CNN
F 3 "" H 8750 3850 50  0001 C CNN
	1    9250 3850
	1    0    0    -1  
$EndComp
$Comp
L ATMEGA328P-PU U1
U 1 1 595DED15
P 3100 5100
F 0 "U1" H 2350 6350 50  0000 L BNN
F 1 "ATMEGA328P-PU" H 3500 3700 50  0000 L BNN
F 2 "Housings_DIP:DIP-28_W7.62mm" H 3100 5100 50  0001 C CIN
F 3 "" H 3100 5100 50  0001 C CNN
	1    3100 5100
	1    0    0    -1  
$EndComp
$Comp
L GND #PWR01
U 1 1 5975005D
P 3900 1700
F 0 "#PWR01" H 3900 1450 50  0001 C CNN
F 1 "GND" H 3900 1550 50  0000 C CNN
F 2 "" H 3900 1700 50  0001 C CNN
F 3 "" H 3900 1700 50  0001 C CNN
	1    3900 1700
	1    0    0    -1  
$EndComp
$Comp
L +9V #PWR02
U 1 1 5975008B
P 3900 1200
F 0 "#PWR02" H 3900 1050 50  0001 C CNN
F 1 "+9V" H 3900 1340 50  0000 C CNN
F 2 "" H 3900 1200 50  0001 C CNN
F 3 "" H 3900 1200 50  0001 C CNN
	1    3900 1200
	1    0    0    -1  
$EndComp
Text Label 3400 1500 0    60   ~ 0
BARREL
$Comp
L GND #PWR03
U 1 1 597501F8
P 6700 2300
F 0 "#PWR03" H 6700 2050 50  0001 C CNN
F 1 "GND" H 6700 2150 50  0000 C CNN
F 2 "" H 6700 2300 50  0001 C CNN
F 3 "" H 6700 2300 50  0001 C CNN
	1    6700 2300
	1    0    0    -1  
$EndComp
$Comp
L +5V #PWR04
U 1 1 59750221
P 6700 1700
F 0 "#PWR04" H 6700 1550 50  0001 C CNN
F 1 "+5V" H 6700 1840 50  0000 C CNN
F 2 "" H 6700 1700 50  0001 C CNN
F 3 "" H 6700 1700 50  0001 C CNN
	1    6700 1700
	1    0    0    -1  
$EndComp
Text Label 6500 2000 0    60   ~ 0
SDA
Text Label 6500 1900 0    60   ~ 0
SCL
Text Label 6500 1800 0    60   ~ 0
SQW
$Comp
L +5V #PWR05
U 1 1 59750414
P 2100 3900
F 0 "#PWR05" H 2100 3750 50  0001 C CNN
F 1 "+5V" H 2100 4040 50  0000 C CNN
F 2 "" H 2100 3900 50  0001 C CNN
F 3 "" H 2100 3900 50  0001 C CNN
	1    2100 3900
	1    0    0    -1  
$EndComp
$Comp
L GND #PWR06
U 1 1 59750486
P 2100 6400
F 0 "#PWR06" H 2100 6150 50  0001 C CNN
F 1 "GND" H 2100 6250 50  0000 C CNN
F 2 "" H 2100 6400 50  0001 C CNN
F 3 "" H 2100 6400 50  0001 C CNN
	1    2100 6400
	1    0    0    -1  
$EndComp
Text Label 4500 5250 2    60   ~ 0
SDA
Text Label 4500 5350 2    60   ~ 0
SCL
$Comp
L +5V #PWR07
U 1 1 59750922
P 4700 5450
F 0 "#PWR07" H 4700 5300 50  0001 C CNN
F 1 "+5V" H 4700 5590 50  0000 C CNN
F 2 "" H 4700 5450 50  0001 C CNN
F 3 "" H 4700 5450 50  0001 C CNN
	1    4700 5450
	1    0    0    -1  
$EndComp
$Comp
L +5V #PWR08
U 1 1 59750D65
P 4700 2400
F 0 "#PWR08" H 4700 2250 50  0001 C CNN
F 1 "+5V" H 4700 2540 50  0000 C CNN
F 2 "" H 4700 2400 50  0001 C CNN
F 3 "" H 4700 2400 50  0001 C CNN
	1    4700 2400
	1    0    0    -1  
$EndComp
Text Label 4400 2600 0    60   ~ 0
PEC
$Comp
L GND #PWR09
U 1 1 59750F4D
P 4700 2900
F 0 "#PWR09" H 4700 2650 50  0001 C CNN
F 1 "GND" H 4700 2750 50  0000 C CNN
F 2 "" H 4700 2900 50  0001 C CNN
F 3 "" H 4700 2900 50  0001 C CNN
	1    4700 2900
	1    0    0    -1  
$EndComp
Text Label 4500 4850 2    60   ~ 0
PEC
$Comp
L R_Small R6
U 1 1 5AF0977D
P 7500 3600
F 0 "R6" H 7530 3620 50  0000 L CNN
F 1 "330" H 7530 3560 50  0000 L CNN
F 2 "Resistors_THT:R_Axial_DIN0207_L6.3mm_D2.5mm_P7.62mm_Horizontal" H 7500 3600 50  0001 C CNN
F 3 "" H 7500 3600 50  0001 C CNN
	1    7500 3600
	0    1    1    0   
$EndComp
$Comp
L R_Small R7
U 1 1 5AF097BD
P 7500 3700
F 0 "R7" H 7530 3720 50  0000 L CNN
F 1 "330" H 7530 3660 50  0000 L CNN
F 2 "Resistors_THT:R_Axial_DIN0207_L6.3mm_D2.5mm_P7.62mm_Horizontal" H 7500 3700 50  0001 C CNN
F 3 "" H 7500 3700 50  0001 C CNN
	1    7500 3700
	0    1    1    0   
$EndComp
$Comp
L R_Small R8
U 1 1 5AF097F8
P 7500 3800
F 0 "R8" H 7530 3820 50  0000 L CNN
F 1 "330" H 7530 3760 50  0000 L CNN
F 2 "Resistors_THT:R_Axial_DIN0207_L6.3mm_D2.5mm_P7.62mm_Horizontal" H 7500 3800 50  0001 C CNN
F 3 "" H 7500 3800 50  0001 C CNN
	1    7500 3800
	0    1    1    0   
$EndComp
$Comp
L R_Small R9
U 1 1 5AF0983A
P 7500 3900
F 0 "R9" H 7530 3920 50  0000 L CNN
F 1 "330" H 7530 3860 50  0000 L CNN
F 2 "Resistors_THT:R_Axial_DIN0207_L6.3mm_D2.5mm_P7.62mm_Horizontal" H 7500 3900 50  0001 C CNN
F 3 "" H 7500 3900 50  0001 C CNN
	1    7500 3900
	0    1    1    0   
$EndComp
$Comp
L GND #PWR010
U 1 1 5AF0A805
P 4700 2000
F 0 "#PWR010" H 4700 1750 50  0001 C CNN
F 1 "GND" H 4700 1850 50  0000 C CNN
F 2 "" H 4700 2000 50  0001 C CNN
F 3 "" H 4700 2000 50  0001 C CNN
	1    4700 2000
	1    0    0    -1  
$EndComp
$Comp
L R_Small R5
U 1 1 5AF0A8A2
P 4700 2800
F 0 "R5" H 4730 2820 50  0000 L CNN
F 1 "10k" H 4730 2760 50  0000 L CNN
F 2 "Resistors_THT:R_Axial_DIN0207_L6.3mm_D2.5mm_P7.62mm_Horizontal" H 4700 2800 50  0001 C CNN
F 3 "" H 4700 2800 50  0001 C CNN
	1    4700 2800
	1    0    0    -1  
$EndComp
$Comp
L R_Small R1
U 1 1 5AF0A9DA
P 4600 5450
F 0 "R1" H 4630 5470 50  0000 L CNN
F 1 "10k" H 4630 5410 50  0000 L CNN
F 2 "Resistors_THT:R_Axial_DIN0207_L6.3mm_D2.5mm_P7.62mm_Horizontal" H 4600 5450 50  0001 C CNN
F 3 "" H 4600 5450 50  0001 C CNN
	1    4600 5450
	0    1    1    0   
$EndComp
$Comp
L R_Small R4
U 1 1 5AF0ACD1
P 4700 1900
F 0 "R4" H 4730 1920 50  0000 L CNN
F 1 "100" H 4730 1860 50  0000 L CNN
F 2 "Resistors_THT:R_Axial_DIN0207_L6.3mm_D2.5mm_P7.62mm_Horizontal" H 4700 1900 50  0001 C CNN
F 3 "" H 4700 1900 50  0001 C CNN
	1    4700 1900
	1    0    0    -1  
$EndComp
Text Label 4600 1600 0    60   ~ 0
BUZ
Text Label 4300 5600 2    60   ~ 0
A
Text Label 4300 5700 2    60   ~ 0
B
Text Label 4300 5800 2    60   ~ 0
C
Text Label 4300 5900 2    60   ~ 0
D
Text Label 4300 6000 2    60   ~ 0
E
Text Label 4300 6100 2    60   ~ 0
F
Text Label 4300 6200 2    60   ~ 0
G
Text Label 10900 3800 2    60   ~ 0
A
Text Label 10900 3900 2    60   ~ 0
B
Text Label 10900 4000 2    60   ~ 0
C
Text Label 10900 4100 2    60   ~ 0
D
Text Label 10900 4200 2    60   ~ 0
E
Text Label 10900 3600 2    60   ~ 0
F
Text Label 10900 3700 2    60   ~ 0
G
Text Label 7600 4000 0    60   ~ 0
CC4
Text Label 10900 3500 2    60   ~ 0
CC5
Text Label 7600 3500 0    60   ~ 0
DP
Text Label 7600 3600 0    60   ~ 0
CC2
Text Label 7600 3700 0    60   ~ 0
CC3
Text Label 7600 3800 0    60   ~ 0
CC4
Text Label 7600 3900 0    60   ~ 0
CC5
Text Label 4400 4000 2    60   ~ 0
D1
Text Label 4400 4100 2    60   ~ 0
D2
Text Label 4400 4300 2    60   ~ 0
D4
Text Label 4400 4200 2    60   ~ 0
D3
Text Label 4500 4950 2    60   ~ 0
BTNL
Text Label 4500 5050 2    60   ~ 0
BTNR
$Comp
L GND #PWR011
U 1 1 5AF0DD3E
P 4700 1300
F 0 "#PWR011" H 4700 1050 50  0001 C CNN
F 1 "GND" H 4700 1150 50  0000 C CNN
F 2 "" H 4700 1300 50  0001 C CNN
F 3 "" H 4700 1300 50  0001 C CNN
	1    4700 1300
	1    0    0    -1  
$EndComp
$Comp
L R_Small R2
U 1 1 5AF0DC92
P 4700 1200
F 0 "R2" H 4730 1220 50  0000 L CNN
F 1 "10k" H 4730 1160 50  0000 L CNN
F 2 "Resistors_THT:R_Axial_DIN0207_L6.3mm_D2.5mm_P7.62mm_Horizontal" H 4700 1200 50  0001 C CNN
F 3 "" H 4700 1200 50  0001 C CNN
	1    4700 1200
	1    0    0    -1  
$EndComp
$Comp
L GND #PWR012
U 1 1 5AF0DDBA
P 5500 1300
F 0 "#PWR012" H 5500 1050 50  0001 C CNN
F 1 "GND" H 5500 1150 50  0000 C CNN
F 2 "" H 5500 1300 50  0001 C CNN
F 3 "" H 5500 1300 50  0001 C CNN
	1    5500 1300
	1    0    0    -1  
$EndComp
$Comp
L R_Small R3
U 1 1 5AF0DDC0
P 5500 1200
F 0 "R3" H 5530 1220 50  0000 L CNN
F 1 "10k" H 5530 1160 50  0000 L CNN
F 2 "Resistors_THT:R_Axial_DIN0207_L6.3mm_D2.5mm_P7.62mm_Horizontal" H 5500 1200 50  0001 C CNN
F 3 "" H 5500 1200 50  0001 C CNN
	1    5500 1200
	1    0    0    -1  
$EndComp
Text Label 4500 1000 0    60   ~ 0
BTNL
Text Label 5300 1000 0    60   ~ 0
BTNR
$Comp
L +5V #PWR013
U 1 1 5AF0E01D
P 5500 800
F 0 "#PWR013" H 5500 650 50  0001 C CNN
F 1 "+5V" H 5500 940 50  0000 C CNN
F 2 "" H 5500 800 50  0001 C CNN
F 3 "" H 5500 800 50  0001 C CNN
	1    5500 800 
	1    0    0    -1  
$EndComp
$Comp
L +5V #PWR014
U 1 1 5AF0E074
P 4700 800
F 0 "#PWR014" H 4700 650 50  0001 C CNN
F 1 "+5V" H 4700 940 50  0000 C CNN
F 2 "" H 4700 800 50  0001 C CNN
F 3 "" H 4700 800 50  0001 C CNN
	1    4700 800 
	1    0    0    -1  
$EndComp
$Comp
L L7805 U2
U 1 1 5AF0E6A2
P 3350 2350
F 0 "U2" H 3200 2475 50  0000 C CNN
F 1 "L7805" H 3350 2475 50  0000 L CNN
F 2 "TO_SOT_Packages_THT:TO-220-3_Horizontal" H 3375 2200 50  0001 L CIN
F 3 "" H 3350 2300 50  0001 C CNN
	1    3350 2350
	1    0    0    -1  
$EndComp
$Comp
L +9V #PWR015
U 1 1 5AF0E82F
P 2950 2250
F 0 "#PWR015" H 2950 2100 50  0001 C CNN
F 1 "+9V" H 2950 2390 50  0000 C CNN
F 2 "" H 2950 2250 50  0001 C CNN
F 3 "" H 2950 2250 50  0001 C CNN
	1    2950 2250
	1    0    0    -1  
$EndComp
$Comp
L +5V #PWR016
U 1 1 5AF0E8C6
P 3750 2250
F 0 "#PWR016" H 3750 2100 50  0001 C CNN
F 1 "+5V" H 3750 2390 50  0000 C CNN
F 2 "" H 3750 2250 50  0001 C CNN
F 3 "" H 3750 2250 50  0001 C CNN
	1    3750 2250
	1    0    0    -1  
$EndComp
$Comp
L CP_Small C1
U 1 1 5AF0E9E3
P 2950 2550
F 0 "C1" H 2960 2620 50  0000 L CNN
F 1 "100u" H 2960 2470 50  0000 L CNN
F 2 "Capacitors_THT:CP_Radial_D6.3mm_P2.50mm" H 2950 2550 50  0001 C CNN
F 3 "" H 2950 2550 50  0001 C CNN
	1    2950 2550
	1    0    0    -1  
$EndComp
$Comp
L CP_Small C2
U 1 1 5AF0EA5D
P 3750 2550
F 0 "C2" H 3760 2620 50  0000 L CNN
F 1 "10u" H 3760 2470 50  0000 L CNN
F 2 "Capacitors_THT:CP_Radial_D5.0mm_P2.00mm" H 3750 2550 50  0001 C CNN
F 3 "" H 3750 2550 50  0001 C CNN
	1    3750 2550
	1    0    0    -1  
$EndComp
$Comp
L GND #PWR017
U 1 1 5AF0ED7E
P 3350 2850
F 0 "#PWR017" H 3350 2600 50  0001 C CNN
F 1 "GND" H 3350 2700 50  0000 C CNN
F 2 "" H 3350 2850 50  0001 C CNN
F 3 "" H 3350 2850 50  0001 C CNN
	1    3350 2850
	1    0    0    -1  
$EndComp
$Comp
L D_Small D1
U 1 1 5AF0F2F7
P 3900 1300
F 0 "D1" H 3850 1380 50  0000 L CNN
F 1 "D_Small" H 3750 1220 50  0000 L CNN
F 2 "Diodes_THT:D_DO-41_SOD81_P7.62mm_Horizontal" V 3900 1300 50  0001 C CNN
F 3 "" V 3900 1300 50  0001 C CNN
	1    3900 1300
	0    1    1    0   
$EndComp
Text Label 2000 4600 0    60   ~ 0
AREF
$Comp
L Crystal Y1
U 1 1 5AF1113C
P 5000 4650
F 0 "Y1" H 5000 4800 50  0000 C CNN
F 1 "16MHz" H 5000 4500 50  0000 C CNN
F 2 "Crystals:Crystal_HC49-4H_Vertical" H 5000 4650 50  0001 C CNN
F 3 "" H 5000 4650 50  0001 C CNN
	1    5000 4650
	0    1    1    0   
$EndComp
Text Label 4400 4400 2    60   ~ 0
BUZ
Text Label 4300 6300 2    60   ~ 0
DP
Text Label 7600 4200 0    60   ~ 0
CC3
Text Label 7600 4100 0    60   ~ 0
CC2
Text Label 7200 3600 0    60   ~ 0
D1
Text Label 7200 3700 0    60   ~ 0
D2
Text Label 7200 3800 0    60   ~ 0
D3
Text Label 7200 3900 0    60   ~ 0
D4
Text Label 4400 4500 2    60   ~ 0
LED
$Comp
L LED_Small D3
U 1 1 5AF128F1
P 6100 2700
F 0 "D3" H 6050 2825 50  0000 L CNN
F 1 "Red" H 5925 2600 50  0000 L CNN
F 2 "LEDs:LED_D3.0mm" V 6100 2700 50  0001 C CNN
F 3 "" V 6100 2700 50  0001 C CNN
	1    6100 2700
	0    -1   -1   0   
$EndComp
Text Label 6100 2400 3    60   ~ 0
LED
$Comp
L R_Small R11
U 1 1 5AF12E18
P 6100 2900
F 0 "R11" H 6130 2920 50  0000 L CNN
F 1 "1k" H 6130 2860 50  0000 L CNN
F 2 "Resistors_THT:R_Axial_DIN0207_L6.3mm_D2.5mm_P2.54mm_Vertical" H 6100 2900 50  0001 C CNN
F 3 "" H 6100 2900 50  0001 C CNN
	1    6100 2900
	1    0    0    -1  
$EndComp
$Comp
L GND #PWR018
U 1 1 5AF12FF7
P 6100 3000
F 0 "#PWR018" H 6100 2750 50  0001 C CNN
F 1 "GND" H 6100 2850 50  0000 C CNN
F 2 "" H 6100 3000 50  0001 C CNN
F 3 "" H 6100 3000 50  0001 C CNN
	1    6100 3000
	1    0    0    -1  
$EndComp
$Comp
L LED_Small D2
U 1 1 5AF1313C
P 5700 2700
F 0 "D2" H 5650 2825 50  0000 L CNN
F 1 "Green" H 5525 2600 50  0000 L CNN
F 2 "LEDs:LED_D3.0mm" V 5700 2700 50  0001 C CNN
F 3 "" V 5700 2700 50  0001 C CNN
	1    5700 2700
	0    -1   -1   0   
$EndComp
$Comp
L R_Small R10
U 1 1 5AF13144
P 5700 2900
F 0 "R10" H 5730 2920 50  0000 L CNN
F 1 "1k" H 5730 2860 50  0000 L CNN
F 2 "Resistors_THT:R_Axial_DIN0207_L6.3mm_D2.5mm_P2.54mm_Vertical" H 5700 2900 50  0001 C CNN
F 3 "" H 5700 2900 50  0001 C CNN
	1    5700 2900
	1    0    0    -1  
$EndComp
$Comp
L GND #PWR019
U 1 1 5AF1314A
P 5700 3000
F 0 "#PWR019" H 5700 2750 50  0001 C CNN
F 1 "GND" H 5700 2850 50  0000 C CNN
F 2 "" H 5700 3000 50  0001 C CNN
F 3 "" H 5700 3000 50  0001 C CNN
	1    5700 3000
	1    0    0    -1  
$EndComp
$Comp
L +5V #PWR020
U 1 1 5AF131EE
P 5700 2600
F 0 "#PWR020" H 5700 2450 50  0001 C CNN
F 1 "+5V" H 5700 2740 50  0000 C CNN
F 2 "" H 5700 2600 50  0001 C CNN
F 3 "" H 5700 2600 50  0001 C CNN
	1    5700 2600
	1    0    0    -1  
$EndComp
$Comp
L C_Small C3
U 1 1 5AF1428E
P 5200 4500
F 0 "C3" H 5210 4570 50  0000 L CNN
F 1 "18p" H 5210 4420 50  0000 L CNN
F 2 "Capacitors_THT:C_Rect_L4.0mm_W2.5mm_P2.50mm" H 5200 4500 50  0001 C CNN
F 3 "" H 5200 4500 50  0001 C CNN
	1    5200 4500
	0    -1   -1   0   
$EndComp
$Comp
L C_Small C4
U 1 1 5AF14356
P 5200 4800
F 0 "C4" H 5210 4870 50  0000 L CNN
F 1 "18p" H 5210 4720 50  0000 L CNN
F 2 "Capacitors_THT:C_Rect_L4.0mm_W2.5mm_P2.50mm" H 5200 4800 50  0001 C CNN
F 3 "" H 5200 4800 50  0001 C CNN
	1    5200 4800
	0    -1   -1   0   
$EndComp
Text Label 4500 5150 2    60   ~ 0
SQW
$Comp
L GND #PWR021
U 1 1 5AF14FEE
P 5300 4500
F 0 "#PWR021" H 5300 4250 50  0001 C CNN
F 1 "GND" H 5300 4350 50  0000 C CNN
F 2 "" H 5300 4500 50  0001 C CNN
F 3 "" H 5300 4500 50  0001 C CNN
	1    5300 4500
	0    -1   -1   0   
$EndComp
$Comp
L GND #PWR022
U 1 1 5AF1504D
P 5300 4800
F 0 "#PWR022" H 5300 4550 50  0001 C CNN
F 1 "GND" H 5300 4650 50  0000 C CNN
F 2 "" H 5300 4800 50  0001 C CNN
F 3 "" H 5300 4800 50  0001 C CNN
	1    5300 4800
	0    -1   -1   0   
$EndComp
$Comp
L Conn_02x03_Odd_Even J7
U 1 1 5AF1564E
P 8200 2350
F 0 "J7" H 8250 2550 50  0000 C CNN
F 1 "ICSP" H 8250 2150 50  0000 C CNN
F 2 "Pin_Headers:Pin_Header_Straight_2x03_Pitch2.54mm" H 8200 2350 50  0001 C CNN
F 3 "" H 8200 2350 50  0001 C CNN
	1    8200 2350
	1    0    0    -1  
$EndComp
$Comp
L Conn_01x05 J6
U 1 1 5AF15947
P 7000 2000
F 0 "J6" H 7000 2300 50  0000 C CNN
F 1 "DS1307" H 7000 1700 50  0000 C CNN
F 2 "Socket_Strips:Socket_Strip_Angled_1x05_Pitch2.54mm" H 7000 2000 50  0001 C CNN
F 3 "" H 7000 2000 50  0001 C CNN
	1    7000 2000
	1    0    0    1   
$EndComp
Text Label 7800 2250 0    60   ~ 0
MISO
Text Label 7800 2350 0    60   ~ 0
SCK
Text Label 7800 2450 0    60   ~ 0
~RST
Text Label 8700 2350 2    60   ~ 0
MOSI
$Comp
L +5V #PWR023
U 1 1 5AF1657E
P 8700 2150
F 0 "#PWR023" H 8700 2000 50  0001 C CNN
F 1 "+5V" H 8700 2290 50  0000 C CNN
F 2 "" H 8700 2150 50  0001 C CNN
F 3 "" H 8700 2150 50  0001 C CNN
	1    8700 2150
	1    0    0    -1  
$EndComp
$Comp
L GND #PWR024
U 1 1 5AF165E0
P 8700 2550
F 0 "#PWR024" H 8700 2300 50  0001 C CNN
F 1 "GND" H 8700 2400 50  0000 C CNN
F 2 "" H 8700 2550 50  0001 C CNN
F 3 "" H 8700 2550 50  0001 C CNN
	1    8700 2550
	1    0    0    -1  
$EndComp
Text Label 4700 4400 2    60   ~ 0
MISO
Text Label 4700 4500 2    60   ~ 0
SCK
Text Label 4700 4300 2    60   ~ 0
MOSI
Text Label 4500 5450 2    60   ~ 0
~RST
$Comp
L Conn_01x03 J1
U 1 1 5AF17395
P 4200 1500
F 0 "J1" H 4200 1700 50  0000 C CNN
F 1 "Power" H 4200 1300 50  0000 C CNN
F 2 "Pin_Headers:Pin_Header_Straight_1x03_Pitch2.54mm" H 4200 1500 50  0001 C CNN
F 3 "" H 4200 1500 50  0001 C CNN
	1    4200 1500
	1    0    0    1   
$EndComp
$Comp
L Conn_01x02 J2
U 1 1 5AF174D0
P 5000 900
F 0 "J2" H 5000 1000 50  0000 C CNN
F 1 "Left Button" H 5000 700 50  0000 C CNN
F 2 "Pin_Headers:Pin_Header_Angled_1x02_Pitch2.54mm" H 5000 900 50  0001 C CNN
F 3 "" H 5000 900 50  0001 C CNN
	1    5000 900 
	1    0    0    -1  
$EndComp
$Comp
L Conn_01x02 J3
U 1 1 5AF176BD
P 5800 900
F 0 "J3" H 5800 1000 50  0000 C CNN
F 1 "Right Button" H 5800 700 50  0000 C CNN
F 2 "Pin_Headers:Pin_Header_Angled_1x02_Pitch2.54mm" H 5800 900 50  0001 C CNN
F 3 "" H 5800 900 50  0001 C CNN
	1    5800 900 
	1    0    0    -1  
$EndComp
$Comp
L Conn_01x02 J4
U 1 1 5AF1794A
P 5000 1600
F 0 "J4" H 5000 1700 50  0000 C CNN
F 1 "Buzzer" H 5000 1400 50  0000 C CNN
F 2 "Pin_Headers:Pin_Header_Angled_1x02_Pitch2.54mm" H 5000 1600 50  0001 C CNN
F 3 "" H 5000 1600 50  0001 C CNN
	1    5000 1600
	1    0    0    -1  
$EndComp
$Comp
L Conn_01x02 J5
U 1 1 5AF179D2
P 5000 2500
F 0 "J5" H 5000 2600 50  0000 C CNN
F 1 "Photo Cell" H 5000 2300 50  0000 C CNN
F 2 "Pin_Headers:Pin_Header_Angled_1x02_Pitch2.54mm" H 5000 2500 50  0001 C CNN
F 3 "" H 5000 2500 50  0001 C CNN
	1    5000 2500
	1    0    0    -1  
$EndComp
$Comp
L TEST_1P J8
U 1 1 5AF18ADD
P 2000 4600
F 0 "J8" H 2000 4870 50  0000 C CNN
F 1 "AREF" H 2000 4800 50  0000 C CNN
F 2 "Measurement_Points:Measurement_Point_Round-TH_Small" H 2200 4600 50  0001 C CNN
F 3 "" H 2200 4600 50  0001 C CNN
	1    2000 4600
	0    -1   -1   0   
$EndComp
$Comp
L SW_Push_Dual SW1
U 1 1 5AF14638
P 8050 1400
F 0 "SW1" H 8100 1500 50  0000 L CNN
F 1 "Reset" H 8050 1130 50  0000 C CNN
F 2 "Buttons_Switches_THT:SW_TH_Tactile_Omron_B3F-10xx" H 8050 1600 50  0001 C CNN
F 3 "" H 8050 1600 50  0001 C CNN
	1    8050 1400
	1    0    0    -1  
$EndComp
$Comp
L GND #PWR025
U 1 1 5AF14F81
P 8350 1700
F 0 "#PWR025" H 8350 1450 50  0001 C CNN
F 1 "GND" H 8350 1550 50  0000 C CNN
F 2 "" H 8350 1700 50  0001 C CNN
F 3 "" H 8350 1700 50  0001 C CNN
	1    8350 1700
	1    0    0    -1  
$EndComp
Text Label 7650 1400 0    60   ~ 0
~RST
Connection ~ 5000 4800
Connection ~ 5000 4500
Wire Wire Line
	6100 2600 6100 2400
Wire Wire Line
	4100 4500 4700 4500
Wire Wire Line
	7400 3600 7200 3600
Wire Wire Line
	7400 3700 7200 3700
Wire Wire Line
	7400 3800 7200 3800
Wire Wire Line
	7400 3900 7200 3900
Wire Wire Line
	4100 6300 4300 6300
Wire Wire Line
	4800 4800 5000 4800
Wire Wire Line
	5000 4800 5100 4800
Wire Wire Line
	4800 4700 4800 4800
Wire Wire Line
	4100 4700 4800 4700
Wire Wire Line
	4800 4600 4100 4600
Wire Wire Line
	4800 4500 4800 4600
Wire Wire Line
	4800 4500 5000 4500
Wire Wire Line
	5000 4500 5100 4500
Wire Wire Line
	2200 4600 2000 4600
Wire Wire Line
	6800 1800 6500 1800
Wire Wire Line
	4100 6100 4300 6100
Wire Wire Line
	4100 6200 4300 6200
Connection ~ 3350 2750
Wire Wire Line
	3750 2750 3750 2650
Wire Wire Line
	3350 2650 3350 2750
Wire Wire Line
	3350 2750 3350 2850
Wire Wire Line
	2950 2750 3350 2750
Wire Wire Line
	3350 2750 3750 2750
Wire Wire Line
	2950 2650 2950 2750
Connection ~ 2950 2350
Connection ~ 3750 2350
Wire Wire Line
	2950 2250 2950 2350
Wire Wire Line
	2950 2350 2950 2450
Wire Wire Line
	3050 2350 2950 2350
Wire Wire Line
	3750 2250 3750 2350
Wire Wire Line
	3750 2350 3750 2450
Wire Wire Line
	3650 2350 3750 2350
Wire Wire Line
	4700 900  4700 800 
Wire Wire Line
	4800 900  4700 900 
Wire Wire Line
	5500 900  5500 800 
Wire Wire Line
	5600 900  5500 900 
Connection ~ 5500 1000
Connection ~ 4700 1000
Wire Wire Line
	4700 1000 4700 1100
Wire Wire Line
	4500 1000 4700 1000
Wire Wire Line
	4700 1000 4800 1000
Wire Wire Line
	5500 1000 5500 1100
Wire Wire Line
	5300 1000 5500 1000
Wire Wire Line
	5500 1000 5600 1000
Wire Wire Line
	4100 5050 4500 5050
Wire Wire Line
	4100 4950 4500 4950
Wire Wire Line
	4100 4300 4700 4300
Wire Wire Line
	4100 4200 4400 4200
Wire Wire Line
	4100 4100 4400 4100
Wire Wire Line
	4100 4000 4400 4000
Wire Wire Line
	7800 4200 7600 4200
Wire Wire Line
	7800 4100 7600 4100
Wire Wire Line
	7800 4000 7600 4000
Wire Wire Line
	10700 3500 10900 3500
Wire Wire Line
	10700 4200 10900 4200
Wire Wire Line
	10700 4100 10900 4100
Wire Wire Line
	10700 4000 10900 4000
Wire Wire Line
	10700 3900 10900 3900
Wire Wire Line
	10700 3800 10900 3800
Wire Wire Line
	10700 3700 10900 3700
Wire Wire Line
	10700 3600 10900 3600
Wire Wire Line
	4100 6000 4300 6000
Wire Wire Line
	4100 5900 4300 5900
Wire Wire Line
	4100 5800 4300 5800
Wire Wire Line
	4100 5700 4300 5700
Wire Wire Line
	4100 5600 4300 5600
Wire Wire Line
	4100 4400 4700 4400
Wire Wire Line
	4800 1600 4600 1600
Wire Wire Line
	4700 1700 4700 1800
Wire Wire Line
	4800 1700 4700 1700
Wire Wire Line
	4500 5450 4100 5450
Wire Wire Line
	7600 3900 7800 3900
Wire Wire Line
	7600 3800 7800 3800
Wire Wire Line
	7600 3700 7800 3700
Wire Wire Line
	7600 3600 7800 3600
Wire Wire Line
	7600 3500 7800 3500
Wire Wire Line
	4100 4850 4500 4850
Connection ~ 4700 2600
Wire Wire Line
	4700 2600 4700 2700
Wire Wire Line
	4400 2600 4700 2600
Wire Wire Line
	4700 2600 4800 2600
Wire Wire Line
	4700 2500 4700 2400
Wire Wire Line
	4800 2500 4700 2500
Wire Wire Line
	4100 5350 4500 5350
Wire Wire Line
	4100 5250 4500 5250
Connection ~ 2100 6300
Wire Wire Line
	2200 6200 2100 6200
Wire Wire Line
	2100 6200 2100 6300
Wire Wire Line
	2100 6300 2100 6400
Wire Wire Line
	2200 6300 2100 6300
Connection ~ 2100 4000
Wire Wire Line
	2100 4300 2200 4300
Wire Wire Line
	2100 3900 2100 4000
Wire Wire Line
	2100 4000 2100 4300
Wire Wire Line
	2200 4000 2100 4000
Wire Wire Line
	6800 1900 6500 1900
Wire Wire Line
	6800 2000 6500 2000
Wire Wire Line
	6700 2100 6700 1700
Wire Wire Line
	6800 2100 6700 2100
Wire Wire Line
	6700 2200 6700 2300
Wire Wire Line
	6800 2200 6700 2200
Wire Wire Line
	4000 1500 3400 1500
Wire Wire Line
	4000 1400 3900 1400
Wire Wire Line
	4100 5150 4500 5150
Wire Wire Line
	8000 2250 7800 2250
Wire Wire Line
	8000 2350 7800 2350
Wire Wire Line
	8000 2450 7800 2450
Wire Wire Line
	8500 2450 8700 2450
Wire Wire Line
	8500 2350 8700 2350
Wire Wire Line
	8500 2250 8700 2250
Wire Wire Line
	8700 2450 8700 2550
Wire Wire Line
	8700 2250 8700 2150
Wire Wire Line
	8250 1600 8350 1600
Wire Wire Line
	7850 1400 7650 1400
Wire Wire Line
	8350 1600 8350 1700
NoConn ~ 7850 1600
NoConn ~ 8250 1400
Wire Wire Line
	4000 1600 3900 1600
Wire Wire Line
	3900 1600 3900 1700
Text Notes 4150 4000 0    60   ~ 0
8
Text Notes 4150 4100 0    60   ~ 0
9
Text Notes 4100 4200 0    60   ~ 0
10
Text Notes 4100 4300 0    60   ~ 0
11
Text Notes 4100 4400 0    60   ~ 0
12
Text Notes 4100 4500 0    60   ~ 0
13
Text Notes 4100 4850 0    60   ~ 0
A0
Text Notes 4100 4950 0    60   ~ 0
A1
Text Notes 4100 5050 0    60   ~ 0
A2
Text Notes 4100 5150 0    60   ~ 0
A3
Text Notes 4100 5250 0    60   ~ 0
A4
Text Notes 4100 5350 0    60   ~ 0
A5
Text Notes 4100 5600 0    60   ~ 0
0
Text Notes 4100 5700 0    60   ~ 0
1
Text Notes 4100 5800 0    60   ~ 0
2
Text Notes 4100 5900 0    60   ~ 0
3
Text Notes 4100 6000 0    60   ~ 0
4
Text Notes 4100 6100 0    60   ~ 0
5
Text Notes 4100 6200 0    60   ~ 0
6
Text Notes 4100 6300 0    60   ~ 0
7
$EndSCHEMATC
